Rで作図
…
filter

# filter
data_seniority_filtered <- 
  data_seniority  %>% 
  # make a subset of the data using dplyr::filter() function
  # NOTE
  # Multiple conditions are available.
  dplyr::filter(
    school == "university"
  )
# print content of the object
data_seniority_filtered

## # A tibble: 583,200 × 9
##    type   gender school age_class length_service industry size  year       value
##    <fct>  <fct>  <fct>  <fct>     <fct>          <fct>    <fct> <date>     <dbl>
##  1 regul… male   unive… under_19  0_years        MINING … over… 2019-06-01    NA
##  2 regul… male   unive… under_19  0_years        MINING … over… 2018-06-01    NA
##  3 regul… male   unive… under_19  0_years        MINING … over… 2017-06-01    NA
##  4 regul… male   unive… under_19  0_years        MINING … over… 2016-06-01    NA
##  5 regul… male   unive… under_19  0_years        MINING … over… 2015-06-01    NA
##  6 regul… male   unive… under_19  0_years        MINING … over… 2014-06-01    NA
##  7 regul… male   unive… under_19  0_years        MINING … over… 2013-06-01    NA
##  8 regul… male   unive… under_19  0_years        MINING … over… 2012-06-01    NA
##  9 regul… male   unive… under_19  0_years        MINING … over… 2011-06-01    NA
## 10 regul… male   unive… under_19  0_years        MINING … over… 2010-06-01    NA
## # ℹ 583,190 more rows
…
|: or

%in%: any of (usually used with vector containing conditions)

filter (Cont.)

# filter with multiple variables
data_seniority_filtered <- 
  data_seniority  %>% 
  dplyr::filter(
    school == "university" & gender == "female"
  )
data_seniority_filtered

## # A tibble: 291,600 × 9
##    type   gender school age_class length_service industry size  year       value
##    <fct>  <fct>  <fct>  <fct>     <fct>          <fct>    <fct> <date>     <dbl>
##  1 regul… female unive… under_19  0_years        MINING … over… 2019-06-01    NA
##  2 regul… female unive… under_19  0_years        MINING … over… 2018-06-01    NA
##  3 regul… female unive… under_19  0_years        MINING … over… 2017-06-01    NA
##  4 regul… female unive… under_19  0_years        MINING … over… 2016-06-01    NA
##  5 regul… female unive… under_19  0_years        MINING … over… 2015-06-01    NA
##  6 regul… female unive… under_19  0_years        MINING … over… 2014-06-01    NA
##  7 regul… female unive… under_19  0_years        MINING … over… 2013-06-01    NA
##  8 regul… female unive… under_19  0_years        MINING … over… 2012-06-01    NA
##  9 regul… female unive… under_19  0_years        MINING … over… 2011-06-01    NA
## 10 regul… female unive… under_19  0_years        MINING … over… 2010-06-01    NA
## # ℹ 291,590 more rows

filter (Cont.)

# filter with multiple conditions
data_seniority_filtered <- 
  data_seniority  %>% 
  dplyr::filter(
    school %in% c("university", "college")
  )
data_seniority_filtered

## # A tibble: 1,749,600 × 9
##    type   gender school age_class length_service industry size  year       value
##    <fct>  <fct>  <fct>  <fct>     <fct>          <fct>    <fct> <date>     <dbl>
##  1 regul… male   colle… under_19  0_years        MINING … over… 2019-06-01    NA
##  2 regul… male   colle… under_19  0_years        MINING … over… 2018-06-01    NA
##  3 regul… male   colle… under_19  0_years        MINING … over… 2017-06-01    NA
##  4 regul… male   colle… under_19  0_years        MINING … over… 2016-06-01    NA
##  5 regul… male   colle… under_19  0_years        MINING … over… 2015-06-01    NA
##  6 regul… male   colle… under_19  0_years        MINING … over… 2014-06-01    NA
##  7 regul… male   colle… under_19  0_years        MINING … over… 2013-06-01    NA
##  8 regul… male   colle… under_19  0_years        MINING … over… 2012-06-01    NA
##  9 regul… male   colle… under_19  0_years        MINING … over… 2011-06-01    NA
## 10 regul… male   colle… under_19  0_years        MINING … over… 2010-06-01    NA
## # ℹ 1,749,590 more rows
…
## `summarise()` has grouped output by 'length_service'. You can override using
## the `.groups` argument.

data_seniority_summary

## # A tibble: 108 × 3
## # Groups:   length_service [9]
##    length_service age_class  Mean
##    <fct>          <fct>     <dbl>
##  1 0_years        20-24      22.3
##  2 0_years        25-29      56.3
##  3 0_years        30-34      91.0
##  4 0_years        35-39      98.9
##  5 0_years        40-44     117. 
##  6 0_years        45-49     129. 
##  7 0_years        50-54     144. 
##  8 0_years        55-59     147. 
##  9 0_years        60-64     306. 
## 10 0_years        65-69      94.4
## # ℹ 98 more rows
…
